{
  "IsEncrypted": false,
  "Values": {
    "AzureWebJobsStorage": "",
    "AzureWebJobsDashboard": ""
  },
  "ConnectionStrings": {
    "postgres-key-json": "Server=localhost;Port=5432;Database=postgres;User Id=postgres;Password=postgres;Pooling=true;Max Auto Prepare=10;Auto Prepare Min Usages=1;",
    "possible-stackoverflow-fix-json": "Host=127.0.0.1;Username=postgres;Password=postgres;Database=postgres"
  }
}